[
{"type":"header","version":"5.1.1","comment":"Export to JSON plugin for PHPMyAdmin"},
{"type":"database","name":"yourdatabase"},
{"type":"table","name":"aspic2_keyword","database":"yourdatabase","data":
[
{"id":"417","name":"\tBis(acetylacetonato)-titan(IV)-"},
{"id":"542","name":"\r\nPelargonyl chloride"},
{"id":"414","name":"  (3-Glycidyloxypropyl)trimethox"},
{"id":"642","name":" 4-Coumaric acid"},
{"id":"639","name":" ATMP"},
{"id":"616","name":" Decenoxirane"},
{"id":"574","name":" Ethylene"},
{"id":"571","name":" Ethylene glycol monoacrylate"},
{"id":"428","name":" niobium(V)oxide"},
{"id":"560","name":" Phenylethylene"},
{"id":"889","name":"(2S,3R)-2-Amino-3-hydroxybutyric"},
{"id":"413","name":"(3-Mercaptopropyl)methyldimethox"},
{"id":"405","name":"(3-Mercaptopropyl)triethoxysilan"},
{"id":"568","name":"1,1-Azobis(cyanocyclohexane)"},
{"id":"610","name":"1,2,3-Tri(cis-9-octadecenoyl)gly"},
{"id":"452","name":"1,2-Dihydroxybenzene"},
{"id":"583","name":"1,2-Ditetradecanoyl-sn-glycero-3"},
{"id":"463","name":"1,3,5-Trihydroxybenzene"},
{"id":"451","name":"1,3-Benzenediol"},
{"id":"509","name":"1,3-Dibromobenzene"},
{"id":"458","name":"1,3-Diphenyl-1,3-propanedione"},
{"id":"396","name":"1,4 bis(triethoxysilyl)benzene2"},
{"id":"825","name":"1-Butyl-3-methylimidazolium"},
{"id":"541","name":"1-Decylamine"},
{"id":"384","name":"1-hexadecylamine"},
{"id":"540","name":"1-Pentylamine"},
{"id":"841","name":"1-Phenyl-1,3-butanedione"},
{"id":"381","name":"16-Mercaptohexadecanoic"},
{"id":"566","name":"2,2&#8242;-Azobis(2-methylpropio"},
{"id":"486","name":"2,4-Dihydroxybenzoic"},
{"id":"459","name":"2,4-Dinitrophenol"},
{"id":"368","name":"2-(4-Pyridyl)ethanesulfonic"},
{"id":"947","name":"2-(Bromomethyl)pyridine hydrobro"},
{"id":"836","name":"2-Amino-5-nitrobenzoic acid"},
{"id":"798","name":"2-Dimethylamino-2-(4-methyl-benz"},
{"id":"618","name":"2-Hydroxyethyl methacrylate"},
{"id":"795","name":"2-Iminothiolane hydrochloride"},
{"id":"794","name":"2-isopropoxyethanol"},
{"id":"450","name":"3&#945;-Hydroxy-5&#946;-cholan-2"},
{"id":"312","name":"3(CYCLOHEXYLAMINO)-1-PROPAN-SULF"},
{"id":"934","name":"3,3?-Diaminobenzidine Peroxidase"},
{"id":"408","name":"3-(2,3-Epoxypropyloxy)propyltrie"},
{"id":"397","name":"3-(2-Aminoethylamino)propyltrime"},
{"id":"276","name":"3-AMINOPROPYLDIMETHYLETHOXYSILAN"},
{"id":"280","name":"3-GLYCIDOXYPROPYLDIMETHYLETHOXYS"},
{"id":"734","name":"3-Hexylthiophene"},
{"id":"735","name":"3-Octylthiophene"},
{"id":"297","name":"3-PHOSPHONOPROPIONIC ACID"},
{"id":"584","name":"3-sn-Phosphatidylcholine, 1,2-di"},
{"id":"920","name":"3-Tritylaminopropionic acid"},
{"id":"570","name":"4-Acetoxystyrol"},
{"id":"948","name":"4-Bromo-1H-imidazole"},
{"id":"976","name":"4-chloroterpyridine"},
{"id":"589","name":"5-BrdU"},
{"id":"590","name":"5-Bromo-1-(2-deoxy-&#946;-D-ribo"},
{"id":"591","name":"5-Bromouracil deoxyriboside"},
{"id":"623","name":"5-Cholestene-3&#946;-thiol"},
{"id":"949","name":"5-Ethynyl-1-methyl-1H-imidazole"},
{"id":"683","name":"56"},
{"id":"159","name":"abcd"},
{"id":"406","name":"acetal"},
{"id":"2","name":"acetate"},
{"id":"911","name":"acetate d uranile"},
{"id":"269","name":"ACETIC"},
{"id":"268","name":"ACETIQUE"},
{"id":"181","name":"acetonate"},
{"id":"270","name":"ACETONE"},
{"id":"544","name":"Acetone dimethyl acetal"},
{"id":"783","name":"acetonitrile"},
{"id":"316","name":"acetyl"},
{"id":"198","name":"acetylacetonate"},
{"id":"210","name":"acid"},
{"id":"689","name":"acid boric"},
{"id":"942","name":"Acid Orange 7"},
{"id":"3","name":"acide"},
{"id":"806","name":"Acide dicarboxylique"},
{"id":"367","name":"ACRIDINE"},
{"id":"565","name":"Acrylate"},
{"id":"518","name":"acrylic"},
{"id":"517","name":"acylic"},
{"id":"492","name":"Adogen"},
{"id":"379","name":"agarose"},
{"id":"603","name":"Ala-Val"},
{"id":"550","name":"albumin serum"},
{"id":"4","name":"alcalin"},
{"id":"5","name":"alcane"},
{"id":"6","name":"alcene"},
{"id":"7","name":"alcool"},
{"id":"8","name":"alcoxide"},
{"id":"9","name":"alcoxyde"},
{"id":"472","name":"ALCYNE"},
{"id":"10","name":"aldehyde"},
{"id":"11","name":"alginate"},
{"id":"378","name":"alginic"},
{"id":"12","name":"aliphatique"},
{"id":"654","name":"alizarin"},
{"id":"13","name":"alizarine"},
{"id":"954","name":"alkyne"},
{"id":"499","name":"ALLYL ALCOOL"},
{"id":"288","name":"alumatrane tetramer"},
{"id":"311","name":"aluminate"},
{"id":"14","name":"aluminium"},
{"id":"222","name":"amberlite"},
{"id":"15","name":"amide"},
{"id":"880","name":"amidine"},
{"id":"16","name":"amidon"},
{"id":"17","name":"amine"},
{"id":"318","name":"amino"},
{"id":"715","name":"amino dextran"},
{"id":"748","name":"aminoadipique"},
{"id":"822","name":"Aminoethylaminopropylsilsesquiox"},
{"id":"887","name":"ammoni"},
{"id":"658","name":"ammonia"},
{"id":"18","name":"ammonium"},
{"id":"860","name":"Ammonium bicarbonate"},
{"id":"874","name":"amorphous silica"},
{"id":"870","name":"ampiciline"},
{"id":"864","name":"Amylopectin"},
{"id":"393","name":"an"},
{"id":"814","name":"anhydride"},
{"id":"729","name":"anhydrous"},
{"id":"355","name":"aniline"},
{"id":"915","name":"Annexin V"},
{"id":"411","name":"ant"},
{"id":"744","name":"anticorps"},
{"id":"20","name":"antimoine"},
{"id":"236","name":"antimony"},
{"id":"770","name":"APO-12"},
{"id":"237","name":"APV"},
{"id":"693","name":"arabic"},
{"id":"694","name":"arabique"},
{"id":"891","name":"araldite"},
{"id":"21","name":"argent"},
{"id":"849","name":"Argile"},
{"id":"372","name":"arsonium"},
{"id":"460","name":"Artificial essential oil of almo"},
{"id":"552","name":"aspartic acid"},
{"id":"736","name":"ATP"},
{"id":"244","name":"aurintricarboxylic"},
{"id":"866","name":"aurintricarboxylic acid"},
{"id":"146","name":"azerty"},
{"id":"907","name":"Azide"},
{"id":"761","name":"azoture"},
{"id":"762","name":"azoture de sodium"},
{"id":"336","name":"B-D-lactose"},
{"id":"896","name":"B-dicétone"},
{"id":"719","name":"BAC"},
{"id":"670","name":"barium"},
{"id":"844","name":"Barium Sulfide"},
{"id":"532","name":"barium zirconate"},
{"id":"422","name":"bariumhydroxid hydrat"},
{"id":"22","name":"baryum"},
{"id":"846","name":"BCF"},
{"id":"23","name":"benzene"},
{"id":"454","name":"Benzene-1,4-dicarboxaldehyde"},
{"id":"360","name":"benzenediol"},
{"id":"168","name":"benzoate"},
{"id":"760","name":"Benzoic acid d5"},
{"id":"339","name":"benzoique"},
{"id":"883","name":"benzoyl"},
{"id":"661","name":"benzyl"},
{"id":"447","name":"benzyltrimethyl ammonium bromide"},
{"id":"632","name":"BES"},
{"id":"869","name":"Betaine"},
{"id":"484","name":"Biphenyl"},
{"id":"865","name":"BIS(TRIETHOXYSILYL)ETHYLENE"},
{"id":"180","name":"bis-(dihydrogénophosphate)"},
{"id":"24","name":"bismuth"},
{"id":"497","name":"bisphenol"},
{"id":"797","name":"Bisphosphonate"},
{"id":"839","name":"Bolton Hunter Reagent"},
{"id":"600","name":"BOP"},
{"id":"599","name":"BOP Reagent"},
{"id":"815","name":"borane"},
{"id":"513","name":"borate"},
{"id":"25","name":"bore"},
{"id":"266","name":"BORIC"},
{"id":"834","name":"boride"},
{"id":"963","name":"Boron carbide"},
{"id":"919","name":"Boron silicide"},
{"id":"757","name":"Bradford"},
{"id":"26","name":"BRIJ"},
{"id":"666","name":"Brij 56"},
{"id":"27","name":"brome"},
{"id":"166","name":"bromide"},
{"id":"847","name":"bromodecane"},
{"id":"511","name":"Bromohexane"},
{"id":"592","name":"BUdR"},
{"id":"746","name":"buffer"},
{"id":"500","name":"BUTIN"},
{"id":"161","name":"butoxyde"},
{"id":"301","name":"butyl"},
{"id":"727","name":"butyl carbitol"},
{"id":"503","name":"butyldiacetoxytin"},
{"id":"469","name":"BUTYLDIETHANOLAMINE"},
{"id":"508","name":"butyltin"},
{"id":"317","name":"BUTYRIC ACID"},
{"id":"871","name":"caco"},
{"id":"946","name":"Cadium Telluride"},
{"id":"673","name":"cadmium"},
{"id":"967","name":"Calcein"},
{"id":"28","name":"calcium"},
{"id":"968","name":"Calcium chloride hexahydrate"},
{"id":"400","name":"calcium hydroxde"},
{"id":"403","name":"calcium nitrate"},
{"id":"321","name":"CAPRIC ACID"},
{"id":"29","name":"carbonate"},
{"id":"886","name":"carbonate de magnésium"},
{"id":"30","name":"carbone"},
{"id":"615","name":"Carboxy"},
{"id":"216","name":"carboxylic"},
{"id":"31","name":"carboxylique"},
{"id":"601","name":"Castros reagent"},
{"id":"587","name":"catalase"},
{"id":"718","name":"CBA"},
{"id":"345","name":"cellulose"},
{"id":"32","name":"cerium"},
{"id":"969","name":"Cerium hydroxide"},
{"id":"464","name":"Cerous chloride heptahydrate"},
{"id":"338","name":"cesium"},
{"id":"955","name":"Cesium Bromide"},
{"id":"953","name":"Cesium dodecahydrododecaborate"},
{"id":"33","name":"cetone"},
{"id":"462","name":"Cetyl bromide"},
{"id":"804","name":"CGI 90"},
{"id":"932","name":"chelateur 68-Gallium"},
{"id":"931","name":"chelateur Gallium"},
{"id":"34","name":"chlore"},
{"id":"179","name":"chloride"},
{"id":"884","name":"Chloro(dimethylsulfide)gold(I)"},
{"id":"733","name":"chloroform"},
{"id":"390","name":"chloroprolpyltrimethoxysilane"},
{"id":"647","name":"Chlorotrimethylsilane"},
{"id":"35","name":"chlorure"},
{"id":"695","name":"Cholate"},
{"id":"354","name":"cholesteryl"},
{"id":"622","name":"Cholesteryl mercaptan"},
{"id":"696","name":"cholic"},
{"id":"621","name":"choline"},
{"id":"902","name":"chorophenol"},
{"id":"36","name":"chrome"},
{"id":"202","name":"chromium"},
{"id":"913","name":"Chromium (II) chloride"},
{"id":"577","name":"cis-9-Octadecenoic acid"},
{"id":"260","name":"citrate"},
{"id":"257","name":"citric"},
{"id":"258","name":"citrique"},
{"id":"433","name":"Co(acac)3"},
{"id":"37","name":"cobalt"},
{"id":"941","name":"Cobalt acetate"},
{"id":"852","name":"cobaltocene"},
{"id":"200","name":"cobaltous"},
{"id":"199","name":"cobaltus"},
{"id":"817","name":"collagen"},
{"id":"593","name":"Collagenase"},
{"id":"38","name":"colorant"},
{"id":"885","name":"Coloration"},
{"id":"39","name":"colore"},
{"id":"40","name":"colore+H544"},
{"id":"41","name":"complexant"},
{"id":"740","name":"Con A"},
{"id":"758","name":"Coomassie"},
{"id":"759","name":"Coomassie Blue"},
{"id":"201","name":"copper"},
{"id":"859","name":"copper salt"},
{"id":"487","name":"Coumarin"},
{"id":"42","name":"cresol"},
{"id":"43","name":"CTAB"},
{"id":"44","name":"cuivre"},
{"id":"144","name":"cyano"},
{"id":"857","name":"cyanuric chloride"},
{"id":"668","name":"cyclam"},
{"id":"662","name":"cyclen"},
{"id":"672","name":"cyclic"},
{"id":"793","name":"cyclo"},
{"id":"853","name":"cyclopentadiene"},
{"id":"851","name":"cyclopentadienyl"},
{"id":"470","name":"CYCLOPENTANONE"},
{"id":"358","name":"cysteine"},
{"id":"971","name":"cystine"},
{"id":"220","name":"D-mannitol"},
{"id":"45","name":"D3"},
{"id":"964","name":"DABSO"},
{"id":"635","name":"DDAB"},
{"id":"816","name":"decaborane"},
{"id":"357","name":"decane"},
{"id":"343","name":"decanoic"},
{"id":"637","name":"decanoic acid"},
{"id":"388","name":"DEDMS"},
{"id":"559","name":"deferoxamine"},
{"id":"644","name":"Deuterium"},
{"id":"229","name":"dextran"},
{"id":"496","name":"DI"},
{"id":"882","name":"Di-n-butyltin oxide"},
{"id":"900","name":"DIACETONE"},
{"id":"491","name":"DIAMINE"},
{"id":"750","name":"diaminobutane"},
{"id":"944","name":"Diamond powder"},
{"id":"803","name":"dianhydride"},
{"id":"567","name":"Dibenzoyl peroxide"},
{"id":"456","name":"dibromide"},
{"id":"505","name":"dibutyltin"},
{"id":"46","name":"dice+H511tone"},
{"id":"277","name":"DICHLORDIPHENYLSILAN"},
{"id":"784","name":"dichloromethane"},
{"id":"807","name":"Dichlorure d'Acyle"},
{"id":"507","name":"Dicyclohexano"},
{"id":"714","name":"dicyclohexylcarbodimide"},
{"id":"755","name":"dieicosenoyl"},
{"id":"627","name":"Diethoxy(methyl)vinylsilane"},
{"id":"389","name":"diethoxydimethylsilane"},
{"id":"274","name":"DIETHOXYDIPHENYLSILAN"},
{"id":"495","name":"DIETHYL"},
{"id":"387","name":"diethyl dimethoxysilane"},
{"id":"704","name":"diethylether"},
{"id":"283","name":"DIETHYLTRIMETHYLSILYLPHOSPHITE"},
{"id":"829","name":"Dihydroxy-naphthalene"},
{"id":"703","name":"dihydroxyterephtalic acid"},
{"id":"481","name":"DIMETHYL"},
{"id":"640","name":"Dimethyl phosphonate"},
{"id":"739","name":"dimethylacetamide"},
{"id":"306","name":"DIMETHYLDIOCTADECYLAMMONIUM BROM"},
{"id":"771","name":"dimethyldodecylphosphine oxide"},
{"id":"698","name":"DIMETHYLPYRIDINE"},
{"id":"501","name":"DIOL"},
{"id":"752","name":"dioleoyl"},
{"id":"754","name":"dipalmitoleoyl"},
{"id":"284","name":"diphenyl"},
{"id":"286","name":"DIPHENYLSILANEDIOL"},
{"id":"214","name":"diphenylthiocarbazone"},
{"id":"724","name":"diphosphonic"},
{"id":"557","name":"dismutase"},
{"id":"342","name":"disulfide"},
{"id":"215","name":"dithizone"},
{"id":"331","name":"DL-lysine"},
{"id":"213","name":"DL-threitol"},
{"id":"705","name":"DMF"},
{"id":"681","name":"dmp"},
{"id":"682","name":"dmpo"},
{"id":"47","name":"DMS-S12"},
{"id":"48","name":"DMS-S15"},
{"id":"49","name":"DMS-S21"},
{"id":"707","name":"DMSO"},
{"id":"930","name":"DMTMM"},
{"id":"573","name":"DNA"},
{"id":"636","name":"DODAB"},
{"id":"468","name":"DODECAN"},
{"id":"488","name":"Dodecanedioic acid"},
{"id":"476","name":"DODECENYL"},
{"id":"230","name":"dodecyl"},
{"id":"310","name":"DODECYL-TRIPHENYL-PHOSPHONIUMBRO"},
{"id":"439","name":"Dodecylbenzenesulfonic acid sodi"},
{"id":"716","name":"Dodecyldimethylphosphine oxide"},
{"id":"753","name":"DOPC"},
{"id":"224","name":"dowex"},
{"id":"445","name":"DOWEX 1X8 200-400 MESH Cl"},
{"id":"221","name":"Dulcitol"},
{"id":"163","name":"dye"},
{"id":"801","name":"dynasylan sivo 210"},
{"id":"665","name":"DYSPROSIUM"},
{"id":"50","name":"eau"},
{"id":"578","name":"EAU LOURDE"},
{"id":"680","name":"Enzyme"},
{"id":"251","name":"eosin"},
{"id":"788","name":"epoxide"},
{"id":"51","name":"epoxy"},
{"id":"710","name":"epoxycyclohexyl"},
{"id":"634","name":"EPPS"},
{"id":"52","name":"erbium"},
{"id":"53","name":"ester"},
{"id":"763","name":"Et(OH)4Ti"},
{"id":"54","name":"etain"},
{"id":"643","name":"Ethan(ol-d)"},
{"id":"352","name":"ethane"},
{"id":"243","name":"ethanediol"},
{"id":"55","name":"ether"},
{"id":"545","name":"etherate"},
{"id":"827","name":"Ethidium bromide"},
{"id":"192","name":"ethoxide"},
{"id":"489","name":"ETHYL"},
{"id":"483","name":"Ethyl Caprate"},
{"id":"382","name":"ethylamine"},
{"id":"525","name":"Ethylendiamine"},
{"id":"333","name":"ethylene"},
{"id":"528","name":"ethylenetriamine"},
{"id":"281","name":"ethylidene"},
{"id":"377","name":"eur"},
{"id":"56","name":"europium"},
{"id":"232","name":"F-127"},
{"id":"57","name":"fer"},
{"id":"58","name":"fer-II"},
{"id":"59","name":"fer-III"},
{"id":"772","name":"ferricyanure"},
{"id":"453","name":"FERROCENE"},
{"id":"914","name":"ferrofluide"},
{"id":"925","name":"Fish oil"},
{"id":"248","name":"Fluka  \ttrans-4-Hydroxycinnamic"},
{"id":"548","name":"Fluorescein"},
{"id":"169","name":"fluoride"},
{"id":"415","name":"FLUORO"},
{"id":"858","name":"FLUORO(TRIETHOXY)SILANE"},
{"id":"61","name":"fluorure"},
{"id":"892","name":"Fmoc-OSu"},
{"id":"906","name":"foil"},
{"id":"651","name":"formaldehyde"},
{"id":"407","name":"formamide"},
{"id":"356","name":"FRUCTOSE"},
{"id":"376","name":"gadolinium"},
{"id":"676","name":"galactopyranoside"},
{"id":"674","name":"galactose"},
{"id":"607","name":"Galactosidase"},
{"id":"62","name":"gallium"},
{"id":"435","name":"Gallium(III)"},
{"id":"63","name":"gelatine"},
{"id":"223","name":"gélifiant"},
{"id":"64","name":"germanium"},
{"id":"862","name":"Germanium tetrachloride"},
{"id":"602","name":"gln"},
{"id":"594","name":"glucose"},
{"id":"65","name":"glutamate"},
{"id":"555","name":"glutamic acid"},
{"id":"562","name":"glutaraldehyde"},
{"id":"595","name":"gly"},
{"id":"679","name":"glycerol"},
{"id":"611","name":"Glycerol trioleate"},
{"id":"347","name":"glycine"},
{"id":"334","name":"glycol"},
{"id":"652","name":"GLYMO"},
{"id":"769","name":"gold"},
{"id":"516","name":"Gum"},
{"id":"799","name":"H20 enrichie"},
{"id":"66","name":"H461se"},
{"id":"67","name":"hafnium"},
{"id":"579","name":"Hemoglobin"},
{"id":"630","name":"HEPES"},
{"id":"194","name":"heptahydrate"},
{"id":"774","name":"Hexaamminecobalt"},
{"id":"775","name":"Hexaamminecobalt (III) Chloride"},
{"id":"831","name":"hexachloroiridate"},
{"id":"177","name":"hexacyanoferrate"},
{"id":"247","name":"hexadecylamine"},
{"id":"187","name":"hexadecyltrimethyl"},
{"id":"502","name":"hexafluorostannate"},
{"id":"193","name":"hexahydrate"},
{"id":"823","name":"Hexamethyldisilazane ( = HMDS)"},
{"id":"538","name":"hexanol"},
{"id":"792","name":"hexyl"},
{"id":"692","name":"Hexyltrimethoxysiliane"},
{"id":"879","name":"Histamine"},
{"id":"726","name":"Histidine"},
{"id":"966","name":"Holmium"},
{"id":"951","name":"Homopiperazine-1,4-bis(2-ethanes"},
{"id":"731","name":"Horseradish peroxidase"},
{"id":"68","name":"huile"},
{"id":"838","name":"huille"},
{"id":"581","name":"Human transferrin"},
{"id":"805","name":"Hydantoin"},
{"id":"158","name":"hydoxy"},
{"id":"722","name":"hydranal"},
{"id":"303","name":"hydrate"},
{"id":"386","name":"hydrazine"},
{"id":"782","name":"hydride"},
{"id":"572","name":"Hydrochloride"},
{"id":"296","name":"hydrogen"},
{"id":"305","name":"HYDROGEN HEXACHLOROPLATINATE (IV"},
{"id":"888","name":"hydrogen nitride"},
{"id":"737","name":"hydrogen peroxyde"},
{"id":"904","name":"hydrogen tetrachloroaurate (III)"},
{"id":"824","name":"hydrogenocarbonates"},
{"id":"176","name":"hydroxide"},
{"id":"466","name":"Hydroxybenzene"},
{"id":"480","name":"Hydroxybenzoic"},
{"id":"250","name":"Hydroxycinnamic"},
{"id":"218","name":"hydroxylamine"},
{"id":"191","name":"hydroxylammonium"},
{"id":"212","name":"hydroxyquinoline"},
{"id":"69","name":"hyposulfite"},
{"id":"404","name":"igepal"},
{"id":"313","name":"imidazole"},
{"id":"855","name":"imidazolium"},
{"id":"873","name":"imide"},
{"id":"878","name":"imine"},
{"id":"895","name":"Immunoglobuline"},
{"id":"70","name":"indicateur"},
{"id":"832","name":"indium"},
{"id":"437","name":"Indium(III)"},
{"id":"340","name":"indole"},
{"id":"608","name":"insulin"},
{"id":"171","name":"iodate"},
{"id":"71","name":"iode"},
{"id":"172","name":"IODIDE"},
{"id":"789","name":"ionic liquid"},
{"id":"675","name":"IPTG"},
{"id":"813","name":"Irgacure 250"},
{"id":"876","name":"iridium"},
{"id":"197","name":"iron"},
{"id":"478","name":"ISOCYANATE"},
{"id":"209","name":"isopropoxide"},
{"id":"482","name":"ISOPROPYL"},
{"id":"465","name":"Isopropyl ether"},
{"id":"812","name":"isothiocyanate"},
{"id":"723","name":"karl fischer"},
{"id":"924","name":"kerosene"},
{"id":"669","name":"kit"},
{"id":"457","name":"L(+)-Ascorbic acid sodium salt"},
{"id":"585","name":"L-&#946;,&#947;-Dimyristoyl-&#94"},
{"id":"598","name":"L-Arginine"},
{"id":"329","name":"L-asparagine"},
{"id":"330","name":"L-glutamic"},
{"id":"725","name":"L-Histidine"},
{"id":"596","name":"L-Lysine"},
{"id":"364","name":"L-proline"},
{"id":"362","name":"L-serine"},
{"id":"363","name":"L-tyrosine"},
{"id":"449","name":"LACTIQUE"},
{"id":"828","name":"lactone"},
{"id":"950","name":"laminin"},
{"id":"374","name":"lanthanum"},
{"id":"960","name":"LATP"},
{"id":"353","name":"laurate"},
{"id":"444","name":"lauroyl chloride"},
{"id":"440","name":"Lauryltrimethylammonium bromide"},
{"id":"671","name":"lead"},
{"id":"741","name":"Lectin"},
{"id":"842","name":"Levure"},
{"id":"918","name":"LFP"},
{"id":"943","name":"Light Fast Yellow 2G"},
{"id":"894","name":"linoleic"},
{"id":"893","name":"linoleic acid"},
{"id":"613","name":"Lipase"},
{"id":"881","name":"lipid"},
{"id":"72","name":"lithium"},
{"id":"917","name":"LMNO"},
{"id":"877","name":"LP30"},
{"id":"73","name":"ludox"},
{"id":"819","name":"Ludox AM"},
{"id":"820","name":"Ludox AS-40"},
{"id":"821","name":"Ludox CL"},
{"id":"790","name":"Ludox HS-40"},
{"id":"328","name":"luminol"},
{"id":"74","name":"magnesium"},
{"id":"899","name":"malonate"},
{"id":"335","name":"malonic"},
{"id":"945","name":"Malononitrile"},
{"id":"75","name":"mangan"},
{"id":"76","name":"manganese"},
{"id":"423","name":"Manganese(II)nitrate tetrahydrat"},
{"id":"856","name":"MDI modifié"},
{"id":"160","name":"mercaptan"},
{"id":"350","name":"mercapto"},
{"id":"369","name":"Mercaptophenol"},
{"id":"77","name":"mercure"},
{"id":"226","name":"mercury"},
{"id":"835","name":"MES buffer"},
{"id":"217","name":"meso-erythritol"},
{"id":"78","name":"metal"},
{"id":"326","name":"metavanadate"},
{"id":"205","name":"methacrylate"},
{"id":"563","name":"Methacrylic acid cyclohexyl este"},
{"id":"319","name":"methane"},
{"id":"324","name":"Methanesulfonic acid"},
{"id":"204","name":"methaxylate"},
{"id":"868","name":"méthoxyéthyl"},
{"id":"157","name":"methyl"},
{"id":"537","name":"methyl alcohol"},
{"id":"534","name":"methyl amino phenol sulfate"},
{"id":"779","name":"methylen blue"},
{"id":"523","name":"Methylhydrogensiloxane polymer"},
{"id":"935","name":"methylstyrene"},
{"id":"901","name":"Milieu de culture"},
{"id":"79","name":"moleculaire"},
{"id":"206","name":"molybdate"},
{"id":"691","name":"Molybdatophosphor"},
{"id":"80","name":"molybdene"},
{"id":"653","name":"molybdenum"},
{"id":"427","name":"Molybdenum(V)"},
{"id":"299","name":"MONO-N-DODECYL PHOSPHATE"},
{"id":"786","name":"monomÃ¨re organique"},
{"id":"638","name":"MOPS"},
{"id":"977","name":"Mordant Yellow 10"},
{"id":"323","name":"morpholino"},
{"id":"239","name":"Mowiol"},
{"id":"547","name":"Mucopeptide N-acetylmuramoylhydr"},
{"id":"546","name":"Muramidase"},
{"id":"863","name":"MUTEG"},
{"id":"604","name":"myoglobin"},
{"id":"256","name":"myristic"},
{"id":"395","name":"N(3 triethoxy silylpropyl) 4,5 d"},
{"id":"304","name":"N,N,N\\',N\\' -tetramethylethylene"},
{"id":"402","name":"N-(2 aminoethyl) 3aminopropylmet"},
{"id":"690","name":"N-3"},
{"id":"970","name":"N-Acetyl"},
{"id":"720","name":"N-BOC-DAE"},
{"id":"298","name":"N-phosphonamethyl iminodiacetic"},
{"id":"929","name":"Naphthoquinone"},
{"id":"745","name":"Naproxene"},
{"id":"81","name":"neodinium"},
{"id":"82","name":"neodymium"},
{"id":"84","name":"ni+H391obium"},
{"id":"83","name":"nickel"},
{"id":"927","name":"nickel iodide"},
{"id":"850","name":"nickelocene"},
{"id":"840","name":"Ninhydrin"},
{"id":"85","name":"niobium"},
{"id":"702","name":"Niobium ethoxide"},
{"id":"86","name":"nitrate"},
{"id":"742","name":"Nitrate d'argent"},
{"id":"485","name":"NITRILE"},
{"id":"165","name":"nitrite"},
{"id":"346","name":"nitro"},
{"id":"365","name":"nitrocellulose"},
{"id":"341","name":"nitrophenyl"},
{"id":"728","name":"nitroxide radical (stable)"},
{"id":"916","name":"NMC111"},
{"id":"768","name":"nonane"},
{"id":"872","name":"Novec 7100"},
{"id":"697","name":"o"},
{"id":"597","name":"Octadecanoic anhydride"},
{"id":"394","name":"octadecyl dimethyl(3 methoxysily"},
{"id":"446","name":"Octadecyltrimethylammonium bromi"},
{"id":"928","name":"octafluoropentanol"},
{"id":"709","name":"octakis"},
{"id":"539","name":"Octane"},
{"id":"315","name":"OCTANOIC ACID"},
{"id":"766","name":"octyl"},
{"id":"443","name":"octyltrimethyl ammonium bromide"},
{"id":"975","name":"oil"},
{"id":"747","name":"oleic"},
{"id":"796","name":"oleylamine"},
{"id":"88","name":"or"},
{"id":"89","name":"organique"},
{"id":"267","name":"ORTHOBORIQUE"},
{"id":"325","name":"orthovanadate"},
{"id":"90","name":"ose"},
{"id":"175","name":"oxalate"},
{"id":"252","name":"oxalique"},
{"id":"614","name":"oxidase"},
{"id":"92","name":"oxide"},
{"id":"952","name":"oxonium"},
{"id":"93","name":"oxyde"},
{"id":"94","name":"oxygenee"},
{"id":"648","name":"p"},
{"id":"287","name":"P,P-DICHLOR-PHENYLPHOSPHINOXID"},
{"id":"307","name":"p-luenesulfonic acid monohydrate"},
{"id":"474","name":"p-Phenylenediacetic"},
{"id":"308","name":"p-Toluenesulfonic acid monohydra"},
{"id":"302","name":"p-Xylene"},
{"id":"781","name":"P123"},
{"id":"810","name":"P25"},
{"id":"809","name":"P25 degussa evonik"},
{"id":"655","name":"P4378-SEO"},
{"id":"845","name":"PAG"},
{"id":"227","name":"palladium"},
{"id":"434","name":"Palladium(II) acetylacetonate"},
{"id":"890","name":"palm"},
{"id":"808","name":"PANI"},
{"id":"909","name":"paraffin"},
{"id":"620","name":"PBS"},
{"id":"861","name":"peg"},
{"id":"962","name":"PEG-SH 800"},
{"id":"933","name":"pencil for immunostainning"},
{"id":"498","name":"Pentaerythritol"},
{"id":"398","name":"pentane"},
{"id":"399","name":"pentanediol"},
{"id":"582","name":"pentanedione"},
{"id":"605","name":"Pepsin A"},
{"id":"606","name":"Pepsin from hog stomach"},
{"id":"777","name":"peptide coupling agent"},
{"id":"95","name":"perchlorate"},
{"id":"678","name":"perchloric"},
{"id":"265","name":"perchlorique"},
{"id":"264","name":"perchoric"},
{"id":"174","name":"peridate"},
{"id":"96","name":"permanganate"},
{"id":"97","name":"Peroxide"},
{"id":"190","name":"peroxodisulfate"},
{"id":"98","name":"peroxyde"},
{"id":"170","name":"PERSULFATE"},
{"id":"348","name":"phenanthroline"},
{"id":"659","name":"phenol"},
{"id":"830","name":"phenolsulfonic"},
{"id":"344","name":"phenone"},
{"id":"242","name":"phenyl"},
{"id":"479","name":"PHENYLENE"},
{"id":"182","name":"phenylphosphate"},
{"id":"253","name":"Phenylphosphinic"},
{"id":"510","name":"phenyltin"},
{"id":"972","name":"phoosphide"},
{"id":"956","name":"Phorbol-12-myristate-13-acetate"},
{"id":"99","name":"phosphate"},
{"id":"588","name":"Phosphatidylcholine"},
{"id":"241","name":"phosphine"},
{"id":"285","name":"phosphinic"},
{"id":"512","name":"phosphite"},
{"id":"586","name":"phosphocholine"},
{"id":"282","name":"phosphonic"},
{"id":"385","name":"phosphonium"},
{"id":"309","name":"Phosphonoacetic acid"},
{"id":"100","name":"phosphore"},
{"id":"295","name":"PHOSPHORIC ACID"},
{"id":"300","name":"PHOSPHOROUS ACID"},
{"id":"246","name":"Phosphorustriphenyl"},
{"id":"259","name":"PHTALATE"},
{"id":"712","name":"phthalate"},
{"id":"101","name":"pierre ponce"},
{"id":"475","name":"pimelic"},
{"id":"633","name":"PIPES"},
{"id":"649","name":"pivalic"},
{"id":"102","name":"platine"},
{"id":"103","name":"plomb"},
{"id":"231","name":"pluronic"},
{"id":"522","name":"PMHS"},
{"id":"527","name":"Poly(dimethylsiloxane), hydroxy"},
{"id":"903","name":"Poly(ethylene glycol) methyl eth"},
{"id":"957","name":"Poly(propylene carbonate)"},
{"id":"656","name":"Poly(styrene-b-ethylene oxide)"},
{"id":"238","name":"Poly(vinyl alcohol)"},
{"id":"554","name":"POLY-DL-SERINE"},
{"id":"875","name":"Polyacrylate de sodium"},
{"id":"833","name":"polyacrylonitrile"},
{"id":"738","name":"polyaniline"},
{"id":"791","name":"Polyeteramine"},
{"id":"519","name":"Polyethylene"},
{"id":"641","name":"Polyethylene glycol"},
{"id":"780","name":"polygalacturonic"},
{"id":"556","name":"polyglycine"},
{"id":"104","name":"polyme+H841re"},
{"id":"105","name":"polymere"},
{"id":"520","name":"Polymethyl"},
{"id":"448","name":"Polyoxyethylene-polyoxypropylene"},
{"id":"940","name":"Polystyrene-block-poly(ethylene-"},
{"id":"776","name":"polythiophene"},
{"id":"233","name":"polyvidone"},
{"id":"926","name":"Polyvinyl butyral"},
{"id":"667","name":"Polyvinylpyrrolidone"},
{"id":"650","name":"porphine"},
{"id":"664","name":"POSS"},
{"id":"107","name":"potassium"},
{"id":"467","name":"Potassium ferricyanide"},
{"id":"965","name":"potassium fluoride"},
{"id":"843","name":"POTASSIUM URATE"},
{"id":"235","name":"povidone"},
{"id":"743","name":"PPO"},
{"id":"905","name":"Praseodynium"},
{"id":"108","name":"precurseur"},
{"id":"551","name":"proline"},
{"id":"322","name":"propane"},
{"id":"471","name":"PROPANEDIOL"},
{"id":"764","name":"propanol"},
{"id":"289","name":"propoxide"},
{"id":"526","name":"propyl"},
{"id":"684","name":"Propylene"},
{"id":"612","name":"protein"},
{"id":"749","name":"putrescine"},
{"id":"234","name":"PVP"},
{"id":"109","name":"pyrene"},
{"id":"162","name":"pyridine"},
{"id":"359","name":"Pyrocatechol"},
{"id":"536","name":"Pyromellitic acid"},
{"id":"225","name":"pyrophosphate"},
{"id":"564","name":"PYRROLE"},
{"id":"961","name":"quinone"},
{"id":"912","name":"recombinant collagen"},
{"id":"110","name":"resine"},
{"id":"910","name":"resomer"},
{"id":"732","name":"rhenium (VII)"},
{"id":"811","name":"rhodamine"},
{"id":"923","name":"Rhodium"},
{"id":"922","name":"Rhodium (III) Chloride"},
{"id":"337","name":"rubidium"},
{"id":"908","name":"rubidium ingot"},
{"id":"373","name":"ruthenium"},
{"id":"431","name":"Ruthenium(III)"},
{"id":"111","name":"sable"},
{"id":"262","name":"SALICYLIC"},
{"id":"263","name":"SALICYLIQUE"},
{"id":"112","name":"scandium"},
{"id":"113","name":"sel"},
{"id":"802","name":"sel de Mohr"},
{"id":"730","name":"selenure"},
{"id":"778","name":"sephadex"},
{"id":"549","name":"serine"},
{"id":"580","name":"Siderophilin"},
{"id":"114","name":"silane"},
{"id":"535","name":"silanolate"},
{"id":"530","name":"silazane"},
{"id":"291","name":"silicate"},
{"id":"115","name":"silice"},
{"id":"116","name":"silicium"},
{"id":"117","name":"silicone"},
{"id":"118","name":"siloxane"},
{"id":"436","name":"silver"},
{"id":"533","name":"silyl"},
{"id":"119","name":"sodium"},
{"id":"826","name":"Sodium phosphate dibasique dodec"},
{"id":"897","name":"Sodium tetrachloroaluminate"},
{"id":"421","name":"Sodium tetrachloroaurate(III) di"},
{"id":"120","name":"solvant"},
{"id":"380","name":"sorbitan"},
{"id":"121","name":"sorbitol"},
{"id":"122","name":"soude"},
{"id":"164","name":"soufre"},
{"id":"271","name":"stain"},
{"id":"521","name":"Starch"},
{"id":"785","name":"stearoylcholine"},
{"id":"123","name":"strontium"},
{"id":"938","name":"Strontium iodide"},
{"id":"531","name":"strontium titanate"},
{"id":"438","name":"STYRENE"},
{"id":"974","name":"substrat ALP"},
{"id":"332","name":"succinic"},
{"id":"371","name":"sucre"},
{"id":"848","name":"sucrose"},
{"id":"366","name":"sulfanilic"},
{"id":"124","name":"sulfate"},
{"id":"617","name":"sulfide"},
{"id":"167","name":"sulfite"},
{"id":"660","name":"sulfoacetic"},
{"id":"711","name":"sulfonate"},
{"id":"320","name":"sulfonic"},
{"id":"125","name":"sulfonique"},
{"id":"255","name":"Sulfosalicylic"},
{"id":"504","name":"sulfosuccinate"},
{"id":"558","name":"superoxide"},
{"id":"126","name":"surfactant"},
{"id":"663","name":"TACN"},
{"id":"127","name":"talc"},
{"id":"128","name":"tamis"},
{"id":"129","name":"tantale"},
{"id":"631","name":"TAPS"},
{"id":"958","name":"TBAF"},
{"id":"787","name":"tBOOH"},
{"id":"576","name":"TCA"},
{"id":"442","name":"TEA hydroxide"},
{"id":"645","name":"TEOS"},
{"id":"455","name":"terephthalic"},
{"id":"619","name":"tert-Butyl peroxide"},
{"id":"854","name":"tert-Butylamine"},
{"id":"290","name":"TERT-BUTYLTRICHLOROSILANE"},
{"id":"130","name":"test"},
{"id":"677","name":"test \\'apostrophe\\' et stripslas"},
{"id":"543","name":"Tetra-n-butoxysilane"},
{"id":"773","name":"tetrabromobenzene"},
{"id":"418","name":"Tetrabutyl orthotitanate"},
{"id":"188","name":"tetrabutylammonium"},
{"id":"228","name":"tetrachloropalladate"},
{"id":"506","name":"Tetracyclohexyl"},
{"id":"273","name":"Tetraethoxysilan"},
{"id":"646","name":"tetraethoxysilane"},
{"id":"625","name":"Tetraethyl orthotitanate"},
{"id":"626","name":"Tetraethyl titanate"},
{"id":"713","name":"Tetraethylammonium"},
{"id":"361","name":"Tetraethylthiuram"},
{"id":"183","name":"tetrafluoborate"},
{"id":"196","name":"TETRAHYDRATE"},
{"id":"708","name":"tetrakis"},
{"id":"473","name":"TETRAMETHOXYSILANE"},
{"id":"441","name":"tetramethyl ammonium bromide"},
{"id":"186","name":"tetramethylammonium"},
{"id":"800","name":"tetramethylsilane"},
{"id":"490","name":"TETRAPENTYL"},
{"id":"272","name":"tetraphenylborate"},
{"id":"706","name":"THF"},
{"id":"765","name":"thio acid"},
{"id":"624","name":"thiocholesterol"},
{"id":"173","name":"thiocyanate"},
{"id":"131","name":"thiol"},
{"id":"751","name":"Thiomalic acid"},
{"id":"514","name":"Thionyl"},
{"id":"575","name":"Thiophene"},
{"id":"189","name":"thiosulfate"},
{"id":"211","name":"THYMOL"},
{"id":"756","name":"Ti-BALDH"},
{"id":"203","name":"tin"},
{"id":"837","name":"tin chloride pentahydrate"},
{"id":"767","name":"Tin(II) Chloride dihydrate"},
{"id":"717","name":"TIS"},
{"id":"132","name":"titane"},
{"id":"416","name":"titaniu"},
{"id":"133","name":"titanium"},
{"id":"207","name":"titanium (III)"},
{"id":"208","name":"titanium (IV)"},
{"id":"432","name":"Titanium(IV) butoxide"},
{"id":"818","name":"Titanium(IV) chloride"},
{"id":"195","name":"TITRIPLEX"},
{"id":"392","name":"TMES"},
{"id":"701","name":"TMOS"},
{"id":"686","name":"TOA"},
{"id":"687","name":"TOP"},
{"id":"721","name":"TOPp"},
{"id":"249","name":"trans-4-Hydroxycinnamic"},
{"id":"494","name":"TRI"},
{"id":"178","name":"tri-calcium"},
{"id":"261","name":"tri-sodium"},
{"id":"921","name":"triacetoxysilane"},
{"id":"240","name":"tributyl"},
{"id":"412","name":"Triethoxy(octyl)silane"},
{"id":"410","name":"Triethoxymethylsilane"},
{"id":"401","name":"Triethoxyphenylsilane"},
{"id":"629","name":"Triethoxypropylsilane"},
{"id":"409","name":"triethoxysilane"},
{"id":"278","name":"TRIETHOXYVINYLSILAN"},
{"id":"628","name":"Triethoxyvinylsilane"},
{"id":"959","name":"triflic acid D"},
{"id":"185","name":"trifluoroacetate"},
{"id":"254","name":"Trifluoroacetic"},
{"id":"493","name":"Trifluoroethanol"},
{"id":"657","name":"trimesic"},
{"id":"524","name":"trimethoxysilane"},
{"id":"391","name":"trimethyl ethoxysilane"},
{"id":"461","name":"Trimethylolethane"},
{"id":"529","name":"trimethylsilane"},
{"id":"327","name":"trimethylspiro"},
{"id":"685","name":"Trioctylamine"},
{"id":"688","name":"Trioctylphosphate"},
{"id":"609","name":"Triolein"},
{"id":"351","name":"trioxane"},
{"id":"383","name":"triphenlmethane-thiol"},
{"id":"936","name":"Triphenylmethane"},
{"id":"245","name":"triphenylphosphine"},
{"id":"294","name":"TRIPHENYLPHOSPHINOXID"},
{"id":"939","name":"triphenylphosphite"},
{"id":"292","name":"TRIS(TRIMETHYLSILYL)PHOSPHATE"},
{"id":"184","name":"trisodique"},
{"id":"134","name":"triton"},
{"id":"349","name":"triton x-100"},
{"id":"898","name":"TrkA inhibitor GW 441756"},
{"id":"135","name":"tungstene"},
{"id":"136","name":"tween"},
{"id":"553","name":"tyrosine"},
{"id":"370","name":"urée"},
{"id":"314","name":"VALERIC ACID"},
{"id":"477","name":"Valerolactam"},
{"id":"137","name":"vanadate"},
{"id":"138","name":"vanadium"},
{"id":"424","name":"Vanadium (V) oxyde"},
{"id":"139","name":"vanadyl"},
{"id":"569","name":"VAZO catalyst 88 free radical so"},
{"id":"515","name":"vinyl"},
{"id":"561","name":"Vinylbenzene"},
{"id":"699","name":"vinylbenzensulfonic"},
{"id":"700","name":"vinylbenzensulfonique"},
{"id":"275","name":"VINYLMETHYLDIETHOXYSILANE"},
{"id":"279","name":"VINYLTRIETHOXYSILAN"},
{"id":"867","name":"Vitamine B5"},
{"id":"219","name":"Xylitol"},
{"id":"375","name":"YTTERBIUM"},
{"id":"140","name":"yttrium"},
{"id":"430","name":"yttrium isopropoxide"},
{"id":"425","name":"Yttrium methoxyethoxide"},
{"id":"426","name":"Yttrium nitrate hexahydrate"},
{"id":"429","name":"Yttrium(III)"},
{"id":"293","name":"zeolite"},
{"id":"141","name":"zinc"},
{"id":"937","name":"zinc iodide"},
{"id":"142","name":"zirconium"},
{"id":"419","name":"zirconium tetrachloride"},
{"id":"973","name":"Zirconium(IV) hydroxide"},
{"id":"420","name":"Zyrconyl chloride octahydrate"},
{"id":"1","name":"__aucun__"}
]
}
]
