[
{"type":"header","version":"5.1.1","comment":"Export to JSON plugin for PHPMyAdmin"},
{"type":"database","name":"yourdatabase"},
{"type":"table","name":"aspic2_hstatement","database":"yourdatabase","data":
[
{"id":"315","code":"EUH001","Hazard_statement":"Explosive when dry.","GHS01":"0","GHS02":"0","GHS03":"0","GHS04":"0","GHS05":"0","GHS06":"0","GHS07":"0","GHS08":"0","GHS09":"0"},
{"id":"316","code":"EUH006","Hazard_statement":"Explosive with or without contact with air.","GHS01":"0","GHS02":"0","GHS03":"0","GHS04":"0","GHS05":"0","GHS06":"0","GHS07":"0","GHS08":"0","GHS09":"0"},
{"id":"317","code":"EUH014","Hazard_statement":"Reacts violently with water.","GHS01":"0","GHS02":"0","GHS03":"0","GHS04":"0","GHS05":"0","GHS06":"0","GHS07":"0","GHS08":"0","GHS09":"0"},
{"id":"318","code":"EUH018","Hazard_statement":"In use may form flammable\/explosive vapour-air mixture.","GHS01":"0","GHS02":"0","GHS03":"0","GHS04":"0","GHS05":"0","GHS06":"0","GHS07":"0","GHS08":"0","GHS09":"0"},
{"id":"319","code":"EUH019","Hazard_statement":"May form explosive peroxides.","GHS01":"0","GHS02":"0","GHS03":"0","GHS04":"0","GHS05":"0","GHS06":"0","GHS07":"0","GHS08":"0","GHS09":"0"},
{"id":"320","code":"EUH029","Hazard_statement":"Contact with water liberates toxic gas.","GHS01":"0","GHS02":"0","GHS03":"0","GHS04":"0","GHS05":"0","GHS06":"0","GHS07":"0","GHS08":"0","GHS09":"0"},
{"id":"321","code":"EUH031","Hazard_statement":"Contact with acids liberates toxic gas.","GHS01":"0","GHS02":"0","GHS03":"0","GHS04":"0","GHS05":"0","GHS06":"0","GHS07":"0","GHS08":"0","GHS09":"0"},
{"id":"322","code":"EUH032","Hazard_statement":"Contact with acids liberates very toxic gas.","GHS01":"0","GHS02":"0","GHS03":"0","GHS04":"0","GHS05":"0","GHS06":"0","GHS07":"0","GHS08":"0","GHS09":"0"},
{"id":"323","code":"EUH044","Hazard_statement":"Risk of explosion if heated under confinement.","GHS01":"0","GHS02":"0","GHS03":"0","GHS04":"0","GHS05":"0","GHS06":"0","GHS07":"0","GHS08":"0","GHS09":"0"},
{"id":"324","code":"EUH059","Hazard_statement":"Hazardous to the ozone layer.","GHS01":"0","GHS02":"0","GHS03":"0","GHS04":"0","GHS05":"0","GHS06":"0","GHS07":"0","GHS08":"0","GHS09":"0"},
{"id":"325","code":"EUH066","Hazard_statement":"Repeated exposure may cause skin dryness or cracking.","GHS01":"0","GHS02":"0","GHS03":"0","GHS04":"0","GHS05":"0","GHS06":"0","GHS07":"0","GHS08":"0","GHS09":"0"},
{"id":"326","code":"EUH070","Hazard_statement":"Toxic by eye contact.","GHS01":"0","GHS02":"0","GHS03":"0","GHS04":"0","GHS05":"0","GHS06":"0","GHS07":"0","GHS08":"0","GHS09":"0"},
{"id":"327","code":"EUH071","Hazard_statement":"Corrosive to the respiratory tract.","GHS01":"0","GHS02":"0","GHS03":"0","GHS04":"0","GHS05":"0","GHS06":"0","GHS07":"0","GHS08":"0","GHS09":"0"},
{"id":"328","code":"EUH201","Hazard_statement":"Contains lead. Should not be used on surfaces liable to be chewed or sucked by children.","GHS01":"0","GHS02":"0","GHS03":"0","GHS04":"0","GHS05":"0","GHS06":"0","GHS07":"0","GHS08":"0","GHS09":"0"},
{"id":"329","code":"EUH201A","Hazard_statement":"Warning! Contains lead.","GHS01":"0","GHS02":"0","GHS03":"0","GHS04":"0","GHS05":"0","GHS06":"0","GHS07":"0","GHS08":"0","GHS09":"0"},
{"id":"330","code":"EUH202","Hazard_statement":"Cyanoacrylate. Danger. Bonds skin and eyes in seconds. Keep out of the reach of children.","GHS01":"0","GHS02":"0","GHS03":"0","GHS04":"0","GHS05":"0","GHS06":"0","GHS07":"0","GHS08":"0","GHS09":"0"},
{"id":"331","code":"EUH203","Hazard_statement":"Contains chromium (VI). May produce an allergic reaction.","GHS01":"0","GHS02":"0","GHS03":"0","GHS04":"0","GHS05":"0","GHS06":"0","GHS07":"0","GHS08":"0","GHS09":"0"},
{"id":"332","code":"EUH204","Hazard_statement":"Contains isocyanates. May produce an allergic reaction.","GHS01":"0","GHS02":"0","GHS03":"0","GHS04":"0","GHS05":"0","GHS06":"0","GHS07":"0","GHS08":"0","GHS09":"0"},
{"id":"333","code":"EUH205","Hazard_statement":"Contains epoxy constituents. May produce an allergic reaction.","GHS01":"0","GHS02":"0","GHS03":"0","GHS04":"0","GHS05":"0","GHS06":"0","GHS07":"0","GHS08":"0","GHS09":"0"},
{"id":"334","code":"EUH206","Hazard_statement":"Warning! Do not use together with other products. May release dangerous gases (chlorine).","GHS01":"0","GHS02":"0","GHS03":"0","GHS04":"0","GHS05":"0","GHS06":"0","GHS07":"0","GHS08":"0","GHS09":"0"},
{"id":"335","code":"EUH207","Hazard_statement":"Warning! Contains cadmium. Dangerous fumes are formed during use. See information supplied by the manufacturer. Comply with the safety instructions.","GHS01":"0","GHS02":"0","GHS03":"0","GHS04":"0","GHS05":"0","GHS06":"0","GHS07":"0","GHS08":"0","GHS09":"0"},
{"id":"336","code":"EUH208","Hazard_statement":"Contains <name of sensitising substance>. May produce an allergic reaction.","GHS01":"0","GHS02":"0","GHS03":"0","GHS04":"0","GHS05":"0","GHS06":"0","GHS07":"0","GHS08":"0","GHS09":"0"},
{"id":"337","code":"EUH209","Hazard_statement":"Can become highly flammable in use.","GHS01":"0","GHS02":"0","GHS03":"0","GHS04":"0","GHS05":"0","GHS06":"0","GHS07":"0","GHS08":"0","GHS09":"0"},
{"id":"338","code":"EUH209A","Hazard_statement":"Can become flammable in use.","GHS01":"0","GHS02":"0","GHS03":"0","GHS04":"0","GHS05":"0","GHS06":"0","GHS07":"0","GHS08":"0","GHS09":"0"},
{"id":"339","code":"EUH210","Hazard_statement":"Safety data sheet available on request.","GHS01":"0","GHS02":"0","GHS03":"0","GHS04":"0","GHS05":"0","GHS06":"0","GHS07":"0","GHS08":"0","GHS09":"0"},
{"id":"340","code":"EUH211","Hazard_statement":"Warning! Hazardous respirable droplets may be formed when sprayed. Do not breathe spray or mist.","GHS01":"0","GHS02":"0","GHS03":"0","GHS04":"0","GHS05":"0","GHS06":"0","GHS07":"0","GHS08":"0","GHS09":"0"},
{"id":"341","code":"EUH212","Hazard_statement":"Warning! Hazardous respirable dust may be formed when used. Do not breathe dust.","GHS01":"0","GHS02":"0","GHS03":"0","GHS04":"0","GHS05":"0","GHS06":"0","GHS07":"0","GHS08":"0","GHS09":"0"},
{"id":"342","code":"EUH401","Hazard_statement":"To avoid risks to human health and the environment, comply with the instructions for use.","GHS01":"0","GHS02":"0","GHS03":"0","GHS04":"0","GHS05":"0","GHS06":"0","GHS07":"0","GHS08":"0","GHS09":"0"},
{"id":"343","code":"H200","Hazard_statement":"Unstable explosive","GHS01":"1","GHS02":"0","GHS03":"0","GHS04":"0","GHS05":"0","GHS06":"0","GHS07":"0","GHS08":"0","GHS09":"0"},
{"id":"344","code":"H201","Hazard_statement":"Explosive; mass explosion hazard","GHS01":"1","GHS02":"0","GHS03":"0","GHS04":"0","GHS05":"0","GHS06":"0","GHS07":"0","GHS08":"0","GHS09":"0"},
{"id":"345","code":"H202","Hazard_statement":"Explosive; severe projection hazard","GHS01":"1","GHS02":"0","GHS03":"0","GHS04":"0","GHS05":"0","GHS06":"0","GHS07":"0","GHS08":"0","GHS09":"0"},
{"id":"346","code":"H203","Hazard_statement":"Explosive; fire, blast or projection hazard","GHS01":"1","GHS02":"0","GHS03":"0","GHS04":"0","GHS05":"0","GHS06":"0","GHS07":"0","GHS08":"0","GHS09":"0"},
{"id":"347","code":"H204","Hazard_statement":"Fire or projection hazard","GHS01":"1","GHS02":"0","GHS03":"0","GHS04":"0","GHS05":"0","GHS06":"0","GHS07":"0","GHS08":"0","GHS09":"0"},
{"id":"348","code":"H205","Hazard_statement":"May mass explode in fire","GHS01":"1","GHS02":"0","GHS03":"0","GHS04":"0","GHS05":"0","GHS06":"0","GHS07":"0","GHS08":"0","GHS09":"0"},
{"id":"349","code":"H206","Hazard_statement":"Fire, blast or projection hazard; increased risk of explosion if desensitizing agent is reduced ","GHS01":"0","GHS02":"1","GHS03":"0","GHS04":"0","GHS05":"0","GHS06":"0","GHS07":"0","GHS08":"0","GHS09":"0"},
{"id":"350","code":"H207","Hazard_statement":"Fire or projection hazard; increased risk of explosion if desensitizing agent is reduced ","GHS01":"0","GHS02":"1","GHS03":"0","GHS04":"0","GHS05":"0","GHS06":"0","GHS07":"0","GHS08":"0","GHS09":"0"},
{"id":"351","code":"H208","Hazard_statement":"Fire hazard; increased risk of explosion if desensitizing agent is reduced ","GHS01":"0","GHS02":"1","GHS03":"0","GHS04":"0","GHS05":"0","GHS06":"0","GHS07":"0","GHS08":"0","GHS09":"0"},
{"id":"352","code":"H220","Hazard_statement":"Extremely flammable gas","GHS01":"0","GHS02":"1","GHS03":"0","GHS04":"0","GHS05":"0","GHS06":"0","GHS07":"0","GHS08":"0","GHS09":"0"},
{"id":"353","code":"H221","Hazard_statement":"Flammable gas","GHS01":"0","GHS02":"1","GHS03":"0","GHS04":"0","GHS05":"0","GHS06":"0","GHS07":"0","GHS08":"0","GHS09":"0"},
{"id":"354","code":"H222","Hazard_statement":"Extremely flammable aerosol","GHS01":"0","GHS02":"1","GHS03":"0","GHS04":"0","GHS05":"0","GHS06":"0","GHS07":"0","GHS08":"0","GHS09":"0"},
{"id":"355","code":"H223","Hazard_statement":"Flammable aerosol","GHS01":"0","GHS02":"1","GHS03":"0","GHS04":"0","GHS05":"0","GHS06":"0","GHS07":"0","GHS08":"0","GHS09":"0"},
{"id":"356","code":"H224","Hazard_statement":"Extremely flammable liquid and vapour","GHS01":"0","GHS02":"1","GHS03":"0","GHS04":"0","GHS05":"0","GHS06":"0","GHS07":"0","GHS08":"0","GHS09":"0"},
{"id":"357","code":"H225","Hazard_statement":"Highly flammable liquid and vapour","GHS01":"0","GHS02":"1","GHS03":"0","GHS04":"0","GHS05":"0","GHS06":"0","GHS07":"0","GHS08":"0","GHS09":"0"},
{"id":"358","code":"H226","Hazard_statement":"Flammable liquid and vapour","GHS01":"0","GHS02":"1","GHS03":"0","GHS04":"0","GHS05":"0","GHS06":"0","GHS07":"0","GHS08":"0","GHS09":"0"},
{"id":"359","code":"H227","Hazard_statement":"Combustible liquid","GHS01":"0","GHS02":"1","GHS03":"0","GHS04":"0","GHS05":"0","GHS06":"0","GHS07":"0","GHS08":"0","GHS09":"0"},
{"id":"360","code":"H228","Hazard_statement":"Flammable solid","GHS01":"0","GHS02":"1","GHS03":"0","GHS04":"0","GHS05":"0","GHS06":"0","GHS07":"0","GHS08":"0","GHS09":"0"},
{"id":"361","code":"H229","Hazard_statement":"Pressurized container: may burst if heated","GHS01":"0","GHS02":"1","GHS03":"0","GHS04":"0","GHS05":"0","GHS06":"0","GHS07":"0","GHS08":"0","GHS09":"0"},
{"id":"362","code":"H230","Hazard_statement":"May react explosively even in the absence of air","GHS01":"0","GHS02":"1","GHS03":"0","GHS04":"0","GHS05":"0","GHS06":"0","GHS07":"0","GHS08":"0","GHS09":"0"},
{"id":"363","code":"H231","Hazard_statement":"May react explosively even in the absence of air at elevated pressure and\/or temperature","GHS01":"0","GHS02":"1","GHS03":"0","GHS04":"0","GHS05":"0","GHS06":"0","GHS07":"0","GHS08":"0","GHS09":"0"},
{"id":"364","code":"H232","Hazard_statement":"May ignite spontaneously if exposed to air ","GHS01":"0","GHS02":"1","GHS03":"0","GHS04":"0","GHS05":"0","GHS06":"0","GHS07":"0","GHS08":"0","GHS09":"0"},
{"id":"365","code":"H240","Hazard_statement":"Heating may cause an explosion","GHS01":"1","GHS02":"0","GHS03":"0","GHS04":"0","GHS05":"0","GHS06":"0","GHS07":"0","GHS08":"0","GHS09":"0"},
{"id":"366","code":"H241","Hazard_statement":"Heating may cause a fire or explosion","GHS01":"1","GHS02":"1","GHS03":"0","GHS04":"0","GHS05":"0","GHS06":"0","GHS07":"0","GHS08":"0","GHS09":"0"},
{"id":"367","code":"H242","Hazard_statement":"Heating may cause a fire","GHS01":"0","GHS02":"1","GHS03":"0","GHS04":"0","GHS05":"0","GHS06":"0","GHS07":"0","GHS08":"0","GHS09":"0"},
{"id":"368","code":"H250","Hazard_statement":"Catches fire spontaneously if exposed to air","GHS01":"0","GHS02":"1","GHS03":"0","GHS04":"0","GHS05":"0","GHS06":"0","GHS07":"0","GHS08":"0","GHS09":"0"},
{"id":"369","code":"H251","Hazard_statement":"Self-heating; may catch fire","GHS01":"0","GHS02":"1","GHS03":"0","GHS04":"0","GHS05":"0","GHS06":"0","GHS07":"0","GHS08":"0","GHS09":"0"},
{"id":"370","code":"H252","Hazard_statement":"Self-heating in large quantities; may catch fire","GHS01":"0","GHS02":"1","GHS03":"0","GHS04":"0","GHS05":"0","GHS06":"0","GHS07":"0","GHS08":"0","GHS09":"0"},
{"id":"371","code":"H260","Hazard_statement":"In contact with water releases flammable gases which may ignite spontaneously","GHS01":"0","GHS02":"1","GHS03":"0","GHS04":"0","GHS05":"0","GHS06":"0","GHS07":"0","GHS08":"0","GHS09":"0"},
{"id":"372","code":"H261","Hazard_statement":"In contact with water releases flammable gas","GHS01":"0","GHS02":"1","GHS03":"0","GHS04":"0","GHS05":"0","GHS06":"0","GHS07":"0","GHS08":"0","GHS09":"0"},
{"id":"373","code":"H270","Hazard_statement":"May cause or intensify fire; oxidizer","GHS01":"0","GHS02":"0","GHS03":"1","GHS04":"0","GHS05":"0","GHS06":"0","GHS07":"0","GHS08":"0","GHS09":"0"},
{"id":"374","code":"H271","Hazard_statement":"May cause fire or explosion; strong oxidizer","GHS01":"0","GHS02":"0","GHS03":"1","GHS04":"0","GHS05":"0","GHS06":"0","GHS07":"0","GHS08":"0","GHS09":"0"},
{"id":"375","code":"H272","Hazard_statement":"May intensify fire; oxidizer","GHS01":"0","GHS02":"0","GHS03":"1","GHS04":"0","GHS05":"0","GHS06":"0","GHS07":"0","GHS08":"0","GHS09":"0"},
{"id":"376","code":"H280","Hazard_statement":"Contains gas under pressure; may explode if heated","GHS01":"0","GHS02":"0","GHS03":"0","GHS04":"1","GHS05":"0","GHS06":"0","GHS07":"0","GHS08":"0","GHS09":"0"},
{"id":"377","code":"H281","Hazard_statement":"Contains refrigerated gas; may cause cryogenic burns or injury","GHS01":"0","GHS02":"0","GHS03":"0","GHS04":"1","GHS05":"0","GHS06":"0","GHS07":"0","GHS08":"0","GHS09":"0"},
{"id":"378","code":"H290","Hazard_statement":"May be corrosive to metals","GHS01":"0","GHS02":"0","GHS03":"0","GHS04":"0","GHS05":"1","GHS06":"0","GHS07":"0","GHS08":"0","GHS09":"0"},
{"id":"379","code":"H300","Hazard_statement":"Fatal if swallowed","GHS01":"0","GHS02":"0","GHS03":"0","GHS04":"0","GHS05":"0","GHS06":"1","GHS07":"0","GHS08":"0","GHS09":"0"},
{"id":"380","code":"H301","Hazard_statement":"Toxic if swallowed","GHS01":"0","GHS02":"0","GHS03":"0","GHS04":"0","GHS05":"0","GHS06":"1","GHS07":"0","GHS08":"0","GHS09":"0"},
{"id":"381","code":"H302","Hazard_statement":"Harmful if swallowed","GHS01":"0","GHS02":"0","GHS03":"0","GHS04":"0","GHS05":"0","GHS06":"0","GHS07":"1","GHS08":"0","GHS09":"0"},
{"id":"382","code":"H303","Hazard_statement":"May be harmful if swallowed","GHS01":"0","GHS02":"0","GHS03":"0","GHS04":"0","GHS05":"0","GHS06":"0","GHS07":"0","GHS08":"0","GHS09":"0"},
{"id":"383","code":"H304","Hazard_statement":"May be fatal if swallowed and enters airways","GHS01":"0","GHS02":"0","GHS03":"0","GHS04":"0","GHS05":"0","GHS06":"0","GHS07":"0","GHS08":"1","GHS09":"0"},
{"id":"384","code":"H305","Hazard_statement":"May be harmful if swallowed and enters airways","GHS01":"0","GHS02":"0","GHS03":"0","GHS04":"0","GHS05":"0","GHS06":"0","GHS07":"0","GHS08":"1","GHS09":"0"},
{"id":"385","code":"H310","Hazard_statement":"Fatal in contact with skin","GHS01":"0","GHS02":"0","GHS03":"0","GHS04":"0","GHS05":"0","GHS06":"1","GHS07":"0","GHS08":"0","GHS09":"0"},
{"id":"386","code":"H311","Hazard_statement":"Toxic in contact with skin","GHS01":"0","GHS02":"0","GHS03":"0","GHS04":"0","GHS05":"0","GHS06":"1","GHS07":"0","GHS08":"0","GHS09":"0"},
{"id":"387","code":"H312","Hazard_statement":"Harmful in contact with skin","GHS01":"0","GHS02":"0","GHS03":"0","GHS04":"0","GHS05":"0","GHS06":"0","GHS07":"1","GHS08":"0","GHS09":"0"},
{"id":"388","code":"H313","Hazard_statement":"May be harmful in contact with skin","GHS01":"0","GHS02":"0","GHS03":"0","GHS04":"0","GHS05":"0","GHS06":"0","GHS07":"0","GHS08":"0","GHS09":"0"},
{"id":"389","code":"H314","Hazard_statement":"Causes severe skin burns and eye damage.","GHS01":"0","GHS02":"0","GHS03":"0","GHS04":"0","GHS05":"1","GHS06":"0","GHS07":"0","GHS08":"0","GHS09":"0"},
{"id":"390","code":"H315","Hazard_statement":"Causes skin irritation","GHS01":"0","GHS02":"0","GHS03":"0","GHS04":"0","GHS05":"0","GHS06":"0","GHS07":"1","GHS08":"0","GHS09":"0"},
{"id":"391","code":"H316","Hazard_statement":"Causes mild skin irritation","GHS01":"0","GHS02":"0","GHS03":"0","GHS04":"0","GHS05":"0","GHS06":"0","GHS07":"0","GHS08":"0","GHS09":"0"},
{"id":"392","code":"H317","Hazard_statement":"May cause an allergic skin reaction","GHS01":"0","GHS02":"0","GHS03":"0","GHS04":"0","GHS05":"0","GHS06":"0","GHS07":"1","GHS08":"0","GHS09":"0"},
{"id":"393","code":"H318","Hazard_statement":"Causes serious eye damage.","GHS01":"0","GHS02":"0","GHS03":"0","GHS04":"0","GHS05":"1","GHS06":"0","GHS07":"0","GHS08":"0","GHS09":"0"},
{"id":"394","code":"H319","Hazard_statement":"Causes serious eye irritation","GHS01":"0","GHS02":"0","GHS03":"0","GHS04":"0","GHS05":"0","GHS06":"0","GHS07":"1","GHS08":"0","GHS09":"0"},
{"id":"395","code":"H320","Hazard_statement":"Causes eye irritation","GHS01":"0","GHS02":"0","GHS03":"0","GHS04":"0","GHS05":"0","GHS06":"0","GHS07":"0","GHS08":"0","GHS09":"0"},
{"id":"396","code":"H330","Hazard_statement":"Fatal if inhaled","GHS01":"0","GHS02":"0","GHS03":"0","GHS04":"0","GHS05":"0","GHS06":"1","GHS07":"0","GHS08":"0","GHS09":"0"},
{"id":"397","code":"H331","Hazard_statement":"Toxic if inhaled","GHS01":"0","GHS02":"0","GHS03":"0","GHS04":"0","GHS05":"0","GHS06":"1","GHS07":"0","GHS08":"0","GHS09":"0"},
{"id":"398","code":"H332","Hazard_statement":"Harmful if inhaled","GHS01":"0","GHS02":"0","GHS03":"0","GHS04":"0","GHS05":"0","GHS06":"0","GHS07":"1","GHS08":"0","GHS09":"0"},
{"id":"399","code":"H333","Hazard_statement":"May be harmful if inhaled","GHS01":"0","GHS02":"0","GHS03":"0","GHS04":"0","GHS05":"0","GHS06":"0","GHS07":"0","GHS08":"0","GHS09":"0"},
{"id":"400","code":"H334","Hazard_statement":"May cause allergy or asthma symptoms or breathing difficulties if inhaled","GHS01":"0","GHS02":"0","GHS03":"0","GHS04":"0","GHS05":"0","GHS06":"0","GHS07":"0","GHS08":"1","GHS09":"0"},
{"id":"401","code":"H335","Hazard_statement":"May cause respiratory irritation","GHS01":"0","GHS02":"0","GHS03":"0","GHS04":"0","GHS05":"0","GHS06":"0","GHS07":"1","GHS08":"0","GHS09":"0"},
{"id":"402","code":"H336","Hazard_statement":"May cause drowsiness or dizziness","GHS01":"0","GHS02":"0","GHS03":"0","GHS04":"0","GHS05":"0","GHS06":"0","GHS07":"1","GHS08":"0","GHS09":"0"},
{"id":"403","code":"H340","Hazard_statement":"May cause genetic defects (state route of exposure if it is conclusively proven that no other routes of exposure cause the hazard)","GHS01":"0","GHS02":"0","GHS03":"0","GHS04":"0","GHS05":"0","GHS06":"0","GHS07":"0","GHS08":"1","GHS09":"0"},
{"id":"404","code":"H341","Hazard_statement":"Suspected of causing genetic defects (state route of exposure if it is conclusively proven that no other routes of exposure cause the hazard)","GHS01":"0","GHS02":"0","GHS03":"0","GHS04":"0","GHS05":"0","GHS06":"0","GHS07":"0","GHS08":"1","GHS09":"0"},
{"id":"405","code":"H350","Hazard_statement":"May cause cancer (state route of exposure if it is conclusively proven that no other routes of exposure cause the hazard)","GHS01":"0","GHS02":"0","GHS03":"0","GHS04":"0","GHS05":"0","GHS06":"0","GHS07":"0","GHS08":"1","GHS09":"0"},
{"id":"406","code":"H350i","Hazard_statement":"May cause cancer by inhalation.","GHS01":"0","GHS02":"0","GHS03":"0","GHS04":"0","GHS05":"0","GHS06":"0","GHS07":"0","GHS08":"1","GHS09":"0"},
{"id":"407","code":"H351","Hazard_statement":"Suspected of causing cancer (state route of exposure if it is conclusively proven that no other routes of exposure cause the hazard)","GHS01":"0","GHS02":"0","GHS03":"0","GHS04":"0","GHS05":"0","GHS06":"0","GHS07":"0","GHS08":"1","GHS09":"0"},
{"id":"408","code":"H360","Hazard_statement":"May damage fertility or the unborn child (state specific effect if known)(state route of exposure if it is conclusively proven that no other routes of exposure cause the hazard)","GHS01":"0","GHS02":"0","GHS03":"0","GHS04":"0","GHS05":"0","GHS06":"0","GHS07":"0","GHS08":"1","GHS09":"0"},
{"id":"409","code":"H360D","Hazard_statement":"May damage the unborn child.","GHS01":"0","GHS02":"0","GHS03":"0","GHS04":"0","GHS05":"0","GHS06":"0","GHS07":"0","GHS08":"1","GHS09":"0"},
{"id":"410","code":"H360Df","Hazard_statement":"May damage the unborn child. Suspected of damaging fertility.","GHS01":"0","GHS02":"0","GHS03":"0","GHS04":"0","GHS05":"0","GHS06":"0","GHS07":"0","GHS08":"1","GHS09":"0"},
{"id":"411","code":"H360F","Hazard_statement":"May damage fertility.","GHS01":"0","GHS02":"0","GHS03":"0","GHS04":"0","GHS05":"0","GHS06":"0","GHS07":"0","GHS08":"1","GHS09":"0"},
{"id":"412","code":"H360FD","Hazard_statement":"May damage fertility. May damage the unborn child.","GHS01":"0","GHS02":"0","GHS03":"0","GHS04":"0","GHS05":"0","GHS06":"0","GHS07":"0","GHS08":"1","GHS09":"0"},
{"id":"413","code":"H360Fd","Hazard_statement":"May damage fertility. Suspected of damaging the unborn child.","GHS01":"0","GHS02":"0","GHS03":"0","GHS04":"0","GHS05":"0","GHS06":"0","GHS07":"0","GHS08":"1","GHS09":"0"},
{"id":"414","code":"H361","Hazard_statement":"Suspected of damaging fertility or the unborn child (state specific effect if known)(state route of exposure if it is conclusively proven that no other routes of exposure cause the hazard)","GHS01":"0","GHS02":"0","GHS03":"0","GHS04":"0","GHS05":"0","GHS06":"0","GHS07":"0","GHS08":"1","GHS09":"0"},
{"id":"415","code":"H361d","Hazard_statement":"Suspected of damaging the unborn child.","GHS01":"0","GHS02":"0","GHS03":"0","GHS04":"0","GHS05":"0","GHS06":"0","GHS07":"0","GHS08":"1","GHS09":"0"},
{"id":"416","code":"H361f","Hazard_statement":"Suspected of damaging fertility.","GHS01":"0","GHS02":"0","GHS03":"0","GHS04":"0","GHS05":"0","GHS06":"0","GHS07":"0","GHS08":"1","GHS09":"0"},
{"id":"417","code":"H361fd","Hazard_statement":"Suspected of damaging fertility. Suspected of damaging the unborn child.","GHS01":"0","GHS02":"0","GHS03":"0","GHS04":"0","GHS05":"0","GHS06":"0","GHS07":"0","GHS08":"1","GHS09":"0"},
{"id":"418","code":"H362","Hazard_statement":"May cause harm to breast-fed children","GHS01":"0","GHS02":"0","GHS03":"0","GHS04":"0","GHS05":"0","GHS06":"0","GHS07":"0","GHS08":"0","GHS09":"0"},
{"id":"419","code":"H370","Hazard_statement":"Causes damage to organs (or state all organs affected, if known) (state route of exposure if it is conclusively proven that no other routes of exposure cause the hazard)","GHS01":"0","GHS02":"0","GHS03":"0","GHS04":"0","GHS05":"0","GHS06":"0","GHS07":"0","GHS08":"1","GHS09":"0"},
{"id":"420","code":"H371","Hazard_statement":"May cause damage to organs (or state all organs affected, if known)(state route of exposure if it is conclusively proven that no other routes of exposure cause the hazard)","GHS01":"0","GHS02":"0","GHS03":"0","GHS04":"0","GHS05":"0","GHS06":"0","GHS07":"0","GHS08":"1","GHS09":"0"},
{"id":"421","code":"H372","Hazard_statement":"Causes damage to organs ( state all organs affected, if known) through prolonged or repeated exposure (state route of exposure if it is conclusively proven that no other routes of exposure cause the hazard)","GHS01":"0","GHS02":"0","GHS03":"0","GHS04":"0","GHS05":"0","GHS06":"0","GHS07":"0","GHS08":"1","GHS09":"0"},
{"id":"422","code":"H373","Hazard_statement":"May cause damage to organs ( state all organs affected, if known) through prolonged or repeated exposure (state route of exposure if it is conclusively proven that no other routes of exposure cause the hazard)","GHS01":"0","GHS02":"0","GHS03":"0","GHS04":"0","GHS05":"0","GHS06":"0","GHS07":"0","GHS08":"1","GHS09":"0"},
{"id":"423","code":"H400","Hazard_statement":"Very toxic to aquatic life","GHS01":"0","GHS02":"0","GHS03":"0","GHS04":"0","GHS05":"0","GHS06":"0","GHS07":"0","GHS08":"0","GHS09":"1"},
{"id":"424","code":"H401","Hazard_statement":"Toxic to aquatic life","GHS01":"0","GHS02":"0","GHS03":"0","GHS04":"0","GHS05":"0","GHS06":"0","GHS07":"0","GHS08":"0","GHS09":"0"},
{"id":"425","code":"H402","Hazard_statement":"Harmful to aquatic life","GHS01":"0","GHS02":"0","GHS03":"0","GHS04":"0","GHS05":"0","GHS06":"0","GHS07":"0","GHS08":"0","GHS09":"0"},
{"id":"426","code":"H410","Hazard_statement":"Very toxic to aquatic life with long lasting effects","GHS01":"0","GHS02":"0","GHS03":"0","GHS04":"0","GHS05":"0","GHS06":"0","GHS07":"0","GHS08":"0","GHS09":"1"},
{"id":"427","code":"H411","Hazard_statement":"Toxic to aquatic life with long lasting effects","GHS01":"0","GHS02":"0","GHS03":"0","GHS04":"0","GHS05":"0","GHS06":"0","GHS07":"0","GHS08":"0","GHS09":"1"},
{"id":"428","code":"H412","Hazard_statement":"Harmful to aquatic life with long lasting effects","GHS01":"0","GHS02":"0","GHS03":"0","GHS04":"0","GHS05":"0","GHS06":"0","GHS07":"0","GHS08":"0","GHS09":"0"},
{"id":"429","code":"H413","Hazard_statement":"May cause long lasting harmful effects to aquatic life","GHS01":"0","GHS02":"0","GHS03":"0","GHS04":"0","GHS05":"0","GHS06":"0","GHS07":"0","GHS08":"0","GHS09":"0"},
{"id":"430","code":"H420","Hazard_statement":"Harms public health and the environment by destroying ozone in the upper atmosphere","GHS01":"0","GHS02":"0","GHS03":"0","GHS04":"0","GHS05":"0","GHS06":"0","GHS07":"1","GHS08":"0","GHS09":"0"}
]
}
]
