[
{"type":"header","version":"5.1.1","comment":"Export to JSON plugin for PHPMyAdmin"},
{"type":"database","name":"yourdatabase"},
{"type":"table","name":"aspic2_provider","database":"yourdatabase","data":
[
{"id":"1","name":"ABCR","distributor":"ROTH"},
{"id":"2","name":"Acros","distributor":"Acros"},
{"id":"3","name":"Aldrich","distributor":"Sigma"},
{"id":"4","name":"Alfa","distributor":"Alfa"},
{"id":"5","name":"Alfa Production","distributor":"Alfa Production"},
{"id":"6","name":"Analar","distributor":"Analar"},
{"id":"7","name":"Appolo","distributor":"Appolo"},
{"id":"8","name":"BASF","distributor":"BASF"},
{"id":"9","name":"Carlo Erba","distributor":"Carlo Erba"},
{"id":"10","name":"CEA","distributor":"CEA"},
{"id":"11","name":"Ciba","distributor":"Ciba"},
{"id":"12","name":"Dupont de Nemours","distributor":"Dupont de Nemours"},
{"id":"13","name":"Eastman","distributor":"Eastman"},
{"id":"15","name":"Fluka","distributor":"Sigma"},
{"id":"16","name":"Gelest","distributor":"ROTH"},
{"id":"17","name":"Heraeus","distributor":"Heraeus"},
{"id":"18","name":"Interbio","distributor":"Interbio"},
{"id":"19","name":"Interchim","distributor":"Interchim"},
{"id":"20","name":"Janssen","distributor":"Janssen"},
{"id":"21","name":"Johnson Matthey","distributor":"Johnson Matthey"},
{"id":"22","name":"Kodak","distributor":"Kodak"},
{"id":"23","name":"Labosi","distributor":"Labosi"},
{"id":"24","name":"Lancaster","distributor":"Lancaster"},
{"id":"26","name":"Mattley","distributor":"Mattley"},
{"id":"27","name":"Merck","distributor":"Merck"},
{"id":"28","name":"NSCR","distributor":"NSCR"},
{"id":"29","name":"Panreac","distributor":"Panreac"},
{"id":"31","name":"Prolabo","distributor":"Prolabo"},
{"id":"33","name":"RAL","distributor":"RAL"},
{"id":"36","name":"Riedel de Haen","distributor":"Sigma"},
{"id":"37","name":"SDS","distributor":"SDS"},
{"id":"40","name":"Sophyc","distributor":"Sophyc"},
{"id":"41","name":"Spectro","distributor":"Spectro"},
{"id":"42","name":"Strem Chemicals","distributor":"Cortecnet"},
{"id":"44","name":"TCI","distributor":"TCI"},
{"id":"46","name":"Touzart & Matignon","distributor":"Touzart & Matignon"},
{"id":"48","name":"UCT","distributor":"UCT"},
{"id":"49","name":"United Chemical","distributor":"United Chemical"},
{"id":"50","name":"Ventron","distributor":"Ventron"},
{"id":"54","name":"n.d.","distributor":"n.d."},
{"id":"56","name":"EGA CHEMIE","distributor":"EGA CHEMIE"},
{"id":"57","name":"USB","distributor":"USB"},
{"id":"58","name":"SERLABO","distributor":"SERLABO"},
{"id":"60","name":"PRESI","distributor":"PRESI"},
{"id":"61","name":"Pharmacia uppsala","distributor":"Pharmacia uppsala"},
{"id":"62","name":"VWR","distributor":"VWR"},
{"id":"63","name":"Polymer Source","distributor":"Direct par CB"},
{"id":"64","name":"Cortecnet","distributor":"Cortecnet"},
{"id":"65","name":"Sigma (SUPELCO)","distributor":"Sigma"},
{"id":"66","name":"Agar Scientific","distributor":""},
{"id":"67","name":"Euriso-top","distributor":""},
{"id":"68","name":"Polysciences, Inc.","distributor":""},
{"id":"69","name":"Rectapur","distributor":""},
{"id":"70","name":"Electron Microscopy Sciences","distributor":""},
{"id":"71","name":"Hybrid Plastics","distributor":""},
{"id":"72","name":"Rhodia","distributor":""},
{"id":"73","name":"3M","distributor":""},
{"id":"74","name":"R.P. NORMAPUR","distributor":""},
{"id":"76","name":"Sigma","distributor":"Sigma"},
{"id":"77","name":"J.T.BAKER Chemicals","distributor":""},
{"id":"78","name":"SpectromÃ©trie Spin et Techniq","distributor":""},
{"id":"79","name":"Boehringer","distributor":""},
{"id":"80","name":"fait maison","distributor":""},
{"id":"81","name":"Caplain Saint-André","distributor":""},
{"id":"82","name":"Solvay","distributor":""},
{"id":"83","name":"sasol","distributor":""},
{"id":"84","name":"condea","distributor":""},
{"id":"85","name":"alumine durmax","distributor":""},
{"id":"86","name":"lavollee","distributor":""},
{"id":"87","name":"engelhard","distributor":""},
{"id":"93","name":"Exciton","distributor":""},
{"id":"95","name":"Markus Antonietti","distributor":""},
{"id":"96","name":"Mayaterials","distributor":""},
{"id":"97","name":"Degussa","distributor":""},
{"id":"98","name":"arkema","distributor":""},
{"id":"99","name":"Alfa Aesar","distributor":""},
{"id":"100","name":"ROTH","distributor":""},
{"id":"102","name":"NEOGEN EUROPE Ltd - ADGEN Phyt","distributor":"LCA Bordeaux"},
{"id":"103","name":"Avanti","distributor":"Coger"},
{"id":"104","name":"Institute for Reference Materi","distributor":"Reference Materials Unit"},
{"id":"105","name":"BAM Federal Institute for Mate","distributor":""},
{"id":"106","name":"Thermo Scientific","distributor":""},
{"id":"107","name":"Fisher","distributor":"Fisher"},
{"id":"108","name":"SIGMA ALDRICH","distributor":"Sigma"},
{"id":"109","name":"Sartomer","distributor":""},
{"id":"110","name":"Nissan Chemical","distributor":""},
{"id":"111","name":"Sigma-aldrich","distributor":"Sigma"},
{"id":"112","name":"4-11","distributor":""},
{"id":"113","name":"Magasin UPMC","distributor":""},
{"id":"114","name":"Branson or","distributor":""},
{"id":"115","name":"GoodFellow","distributor":"Goodfellow"},
{"id":"116","name":"MP Biomedical","distributor":"MP biomedical"},
{"id":"117","name":"NanoAmor Europe","distributor":""},
{"id":"118","name":"Huntsman Holland BV","distributor":""},
{"id":"119","name":"Chempur","distributor":""},
{"id":"120","name":"Fisher \/ Acros","distributor":""},
{"id":"121","name":"pharmacie","distributor":""},
{"id":"122","name":"promega","distributor":""},
{"id":"123","name":"Calbiochem","distributor":""},
{"id":"124","name":"Life Technology","distributor":""},
{"id":"125","name":"Noah Tech","distributor":""},
{"id":"126","name":"AMBION","distributor":""},
{"id":"127","name":"Supelco","distributor":""},
{"id":"128","name":"saft","distributor":""},
{"id":"129","name":"antibodies.online.com","distributor":""},
{"id":"130","name":"Senova GmbH","distributor":""},
{"id":"131","name":"Invitrogen","distributor":""},
{"id":"132","name":"Specific Polymers","distributor":""},
{"id":"133","name":"FluoroChem","distributor":""},
{"id":"134","name":"PlasmaChem","distributor":""},
{"id":"135","name":"British Biocell","distributor":""},
{"id":"136","name":"Solvionic","distributor":""},
{"id":"137","name":"ChemLab","distributor":""},
{"id":"138","name":"Dequachim","distributor":""},
{"id":"139","name":"Invivogen","distributor":""},
{"id":"140","name":"Tocris","distributor":""},
{"id":"141","name":"AIT","distributor":""},
{"id":"142","name":"Sans fournisseur","distributor":""},
{"id":"143","name":"Euromedex","distributor":""},
{"id":"144","name":"Iolitec","distributor":""},
{"id":"145","name":"Novozymes","distributor":""},
{"id":"146","name":"Roche","distributor":""},
{"id":"147","name":"Nanoprobe","distributor":""},
{"id":"148","name":"Biolabs","distributor":""},
{"id":"149","name":"Gibco","distributor":""},
{"id":"150","name":"Promocell","distributor":""},
{"id":"151","name":"European Pharmacopeia Referenc","distributor":""},
{"id":"152","name":"Gilbert","distributor":""},
{"id":"153","name":"BioRad","distributor":""},
{"id":"154","name":"Novex","distributor":""},
{"id":"155","name":"Kuhlmann","distributor":""},
{"id":"156","name":"Michrome","distributor":""},
{"id":"157","name":"Geigy","distributor":""},
{"id":"158","name":"Gurr's","distributor":""},
{"id":"159","name":"Grübler","distributor":""},
{"id":"160","name":"Lajot","distributor":""},
{"id":"161","name":"Symatese","distributor":""},
{"id":"162","name":"Amersham bioscience","distributor":""},
{"id":"163","name":"SIARE","distributor":"SIARE"},
{"id":"164","name":"Momentive","distributor":""},
{"id":"165","name":"Hunstman","distributor":""},
{"id":"166","name":"Sarpi","distributor":""},
{"id":"167","name":"Katchem","distributor":""},
{"id":"168","name":"Non renseigné","distributor":""},
{"id":"169","name":"scbt","distributor":""},
{"id":"170","name":"Santa Cruz Biotechnology","distributor":""},
{"id":"171","name":"Wako Chemicals GmbH","distributor":"SOBIODA"},
{"id":"172","name":"Livchem logistics","distributor":""},
{"id":"173","name":"Microchem","distributor":"Chimie Tech Services"},
{"id":"174","name":"Abcam","distributor":"Abcam"},
{"id":"175","name":"KING INDUSTRIES","distributor":""},
{"id":"176","name":"Evonik","distributor":"Evonik"},
{"id":"177","name":"Setral","distributor":""},
{"id":"178","name":"Fugene","distributor":"Fugene"},
{"id":"179","name":"First4Magnets","distributor":""},
{"id":"180","name":"Imerys","distributor":""},
{"id":"181","name":"MTI Corporation","distributor":""},
{"id":"182","name":"FuelCellStore","distributor":""},
{"id":"183","name":"Fernando Igoa","distributor":""},
{"id":"184","name":"TOSHIMA","distributor":""},
{"id":"185","name":"Atlantic labo","distributor":""},
{"id":"187","name":"CheMatech","distributor":"CheMatech"},
{"id":"188","name":"-","distributor":"-"},
{"id":"189","name":"Manchester organics","distributor":"-"},
{"id":"190","name":"LFG","distributor":""},
{"id":"191","name":"MSE Supplies LLC","distributor":""},
{"id":"192","name":"Empower Materials","distributor":""},
{"id":"193","name":"Acros Organics","distributor":""},
{"id":"194","name":"Glentham Life Science","distributor":""},
{"id":"195","name":"BioLog Heppe GmbH","distributor":""},
{"id":"196","name":"fisher scientific","distributor":""},
{"id":"197","name":"mse","distributor":""},
{"id":"198","name":"Adamasnano","distributor":""},
{"id":"199","name":"Mathym","distributor":""},
{"id":"200","name":"Carl ROTH","distributor":""},
{"id":"201","name":"SkySpring Nanomaterials","distributor":""}
]
}
]
